{
	id: 'loginForm',
	fields: [
		{
			id: 'userName',
			label: 'User name',
			required: true,
			type: 'text',
			minlength: 6,
			maxlength: 20
		},
		{
			id: 'userPassword',
			label: 'Password',
			required: true,
			type: 'password',
			minlength: 6,
			maxlength: 20
		},
		{
			id: 'userAge',
			label: 'Age',
			required: true,
			type: 'number',
			min: 18
		},
		{
			id: 'startDate',
			type: 'date',
			required: true,
			label: 'Date',
			min: "2018-01-13",
			max: "2018-12-31"
		},
		{
			id: 'userComment',
			type: 'textarea',
			label: 'Comment',
			required: false
		},
	]
}